{
  "switches": [
    {
      "id": "SW1",
      "serialNumber": "SW1123",
      "manufacturer": "Nokia",
      "hardwareVersion": "1.0",
      "softwareVersion": "1.0.0"
    },
    {
      "id": "SW2",
      "serialNumber": "SW2123",
      "manufacturer": "Nokia",
      "hardwareVersion": "1.0",
      "softwareVersion": "1.0.0"
    },
    {
      "id": "SW3",
      "serialNumber": "SW3123",
      "manufacturer": "Nokia",
      "hardwareVersion": "1.0",
      "softwareVersion": "1.0.0"
    }
  ],
  "streams": [
    {
      "protocol": "media",
      "paths": [
        {
          "source": {
            "networkLocation": {
              "switchId": "SW1",
              "port": 1
            },
            "ipAddress": "192.168.1.1",
            "ipPort": 8080,
            "name": "camera1"
          },
          "destination": {
            "networkLocation": {
              "switchId": "SW2",
              "port": 1
            },
            "ipAddress": "192.168.10.1",
            "ipPort": 8080,
            "name": "monitor1"
          },
          "staticPath": true,
          "links": [
            {
              "source": {
                "switchId": "SW1",
                "port": 1
              },
              "destination": {
                "switchId": "SW1",
                "port": 2
              },
              "maxBandwidthInBps": 1000
            },
            {
              "source": {
                "switchId": "SW1",
                "port": 2
              },
              "destination": {
                "switchId": "SW2",
                "port": 2
              },
              "maxBandwidthInBps": 1000
            },
            {
              "source": {
                "switchId": "SW2",
                "port": 2
              },
              "destination": {
                "switchId": "SW2",
                "port": 1
              },
              "maxBandwidthInBps": 1000
            }
          ]
        },
        {
          "source": {
            "networkLocation": {
              "switchId": "SW1",
              "port": 1
            },
            "ipAddress": "192.168.1.1",
            "ipPort": 8080,
            "name": "camera1"
          },
          "destination": {
            "networkLocation": {
              "switchId": "SW2",
              "port": 2
            },
            "ipAddress": "192.168.10.2",
            "ipPort": 8080,
            "name": "monitor2"
          },
          "staticPath": true,
          "links": [
            {
              "source": {
                "switchId": "SW1",
                "port": 1
              },
              "destination": {
                "switchId": "SW1",
                "port": 2
              },
              "maxBandwidthInBps": 1000
            },
            {
              "source": {
                "switchId": "SW1",
                "port": 2
              },
              "destination": {
                "switchId": "SW2",
                "port": 2
              },
              "maxBandwidthInBps": 1000
            },
            {
              "source": {
                "switchId": "SW2",
                "port": 2
              },
              "destination": {
                "switchId": "SW2",
                "port": 3
              },
              "maxBandwidthInBps": 1000
            }
          ]
        },
        {
          "source": {
            "networkLocation": {
              "switchId": "SW1",
              "port": 1
            },
            "ipAddress": "192.168.1.1",
            "ipPort": 8080,
            "name": "camera1"
          },
          "destination": {
            "networkLocation": {
              "switchId": "SW3",
              "port": 3
            },
            "ipAddress": "192.168.10.2",
            "ipPort": 8080,
            "name": "monitor2"
          },
          "staticPath": true,
          "links": [
            {
              "source": {
                "switchId": "SW1",
                "port": 1
              },
              "destination": {
                "switchId": "SW1",
                "port": 2
              },
              "maxBandwidthInBps": 1000
            },
            {
              "source": {
                "switchId": "SW1",
                "port": 2
              },
              "destination": {
                "switchId": "SW2",
                "port": 2
              },
              "maxBandwidthInBps": 1000
            },
            {
              "source": {
                "switchId": "SW2",
                "port": 2
              },
              "destination": {
                "switchId": "SW2",
                "port": 3
              },
              "maxBandwidthInBps": 1000
            }
          ]
        }
      ]
    },
    {
      "protocol": "service",
      "paths": [
        {
          "source": {
            "networkLocation": {
              "switchId": "SW1",
              "port": 1
            },
            "ipAddress": "192.168.1.1",
            "ipPort": 8080,
            "name": "camera1"
          },
          "destination": {
            "networkLocation": {
              "switchId": "SW2",
              "port": 1
            },
            "ipAddress": "192.168.10.1",
            "ipPort": 8080,
            "name": "monitor1"
          },
          "staticPath": true,
          "links": [
            {
              "source": {
                "switchId": "SW1",
                "port": 1
              },
              "destination": {
                "switchId": "SW1",
                "port": 2
              },
              "maxBandwidthInBps": 1000
            },
            {
              "source": {
                "switchId": "SW1",
                "port": 2
              },
              "destination": {
                "switchId": "SW2",
                "port": 2
              },
              "maxBandwidthInBps": 1000
            },
            {
              "source": {
                "switchId": "SW2",
                "port": 2
              },
              "destination": {
                "switchId": "SW2",
                "port": 1
              },
              "maxBandwidthInBps": 1000
            }
          ]
        }
      ]
    },
    {
      "protocol": "arp",
      "paths": [
        {
          "source": {
            "networkLocation": {
              "switchId": "SW1",
              "port": 1
            },
            "ipAddress": "192.168.1.1",
            "ipPort": 8080,
            "name": "camera1"
          },
          "destination": {
            "networkLocation": {
              "switchId": "SW2",
              "port": 3
            },
            "ipAddress": "192.168.10.2",
            "ipPort": 8080,
            "name": "monitor2"
          },
          "staticPath": true,
          "links": [
            {
              "source": {
                "switchId": "SW1",
                "port": 1
              },
              "destination": {
                "switchId": "SW1",
                "port": 2
              },
              "maxBandwidthInBps": 1000
            },
            {
              "source": {
                "switchId": "SW1",
                "port": 2
              },
              "destination": {
                "switchId": "SW2",
                "port": 2
              },
              "maxBandwidthInBps": 1000
            },
            {
              "source": {
                "switchId": "SW2",
                "port": 2
              },
              "destination": {
                "switchId": "SW2",
                "port": 3
              },
              "maxBandwidthInBps": 1000
            }
          ]
        }
      ]
    }
  ]
}